{
  "project_info": {
    "project_number": "391251810216",
    "firebase_url": "https://flutter-31b89.firebaseio.com",
    "project_id": "flutter-31b89",
    "storage_bucket": "flutter-31b89.appspot.com"
  },
  "client": [
    {
      "client_info": {
        "mobilesdk_app_id": "1:391251810216:android:c8c9bff3f53042d0",
        "android_client_info": {
          "package_name": "com.example.chatflutter"
        }
      },
      "oauth_client": [
        {
          "client_id": "391251810216-vl4g45jmd4s54mitnjlq1s4oa6sfmppi.apps.googleusercontent.com",
          "client_type": 1,
          "android_info": {
            "package_name": "com.example.chatflutter",
            "certificate_hash": "1d19b6261421b5bd7404cfe09746c538980628b7"
          }
        },
        {
          "client_id": "391251810216-qv67e170gqcufj3hugqj37oqgi173ne8.apps.googleusercontent.com",
          "client_type": 1,
          "android_info": {
            "package_name": "com.example.chatflutter",
            "certificate_hash": "73384abaf7a04cdc10840a0a68c7c7c9a99c3967"
          }
        },
        {
          "client_id": "391251810216-a08ej62knn8nlddfvn1f67oghfu2acj9.apps.googleusercontent.com",
          "client_type": 3
        }
      ],
      "api_key": [
        {
          "current_key": "AIzaSyADE0xGOuDbYkloHjss8vVSTDERQ6b2hXs"
        }
      ],
      "services": {
        "appinvite_service": {
          "other_platform_oauth_client": [
            {
              "client_id": "391251810216-a08ej62knn8nlddfvn1f67oghfu2acj9.apps.googleusercontent.com",
              "client_type": 3
            }
          ]
        }
      }
    },
    {
      "client_info": {
        "mobilesdk_app_id": "1:391251810216:android:f3e4b41f14986b6a",
        "android_client_info": {
          "package_name": "com.example.fcmflutter"
        }
      },
      "oauth_client": [
        {
          "client_id": "391251810216-a08ej62knn8nlddfvn1f67oghfu2acj9.apps.googleusercontent.com",
          "client_type": 3
        }
      ],
      "api_key": [
        {
          "current_key": "AIzaSyADE0xGOuDbYkloHjss8vVSTDERQ6b2hXs"
        }
      ],
      "services": {
        "appinvite_service": {
          "other_platform_oauth_client": [
            {
              "client_id": "391251810216-a08ej62knn8nlddfvn1f67oghfu2acj9.apps.googleusercontent.com",
              "client_type": 3
            }
          ]
        }
      }
    },
    {
      "client_info": {
        "mobilesdk_app_id": "1:391251810216:android:d79132cbaa268d09",
        "android_client_info": {
          "package_name": "com.example.flutterprojectone"
        }
      },
      "oauth_client": [
        {
          "client_id": "391251810216-tpk7bv4s3lpg9m7qn7v687csgs4rjtip.apps.googleusercontent.com",
          "client_type": 1,
          "android_info": {
            "package_name": "com.example.flutterprojectone",
            "certificate_hash": "73384abaf7a04cdc10840a0a68c7c7c9a99c3967"
          }
        },
        {
          "client_id": "391251810216-a08ej62knn8nlddfvn1f67oghfu2acj9.apps.googleusercontent.com",
          "client_type": 3
        }
      ],
      "api_key": [
        {
          "current_key": "AIzaSyADE0xGOuDbYkloHjss8vVSTDERQ6b2hXs"
        }
      ],
      "services": {
        "appinvite_service": {
          "other_platform_oauth_client": [
            {
              "client_id": "391251810216-a08ej62knn8nlddfvn1f67oghfu2acj9.apps.googleusercontent.com",
              "client_type": 3
            }
          ]
        }
      }
    },
    {
      "client_info": {
        "mobilesdk_app_id": "1:391251810216:android:1f8bba7bc85ff36a",
        "android_client_info": {
          "package_name": "com.example.flutterprojecttwo"
        }
      },
      "oauth_client": [
        {
          "client_id": "391251810216-977kgug42ijgjdnhm6fbvcbk3ei2m9cv.apps.googleusercontent.com",
          "client_type": 1,
          "android_info": {
            "package_name": "com.example.flutterprojecttwo",
            "certificate_hash": "73384abaf7a04cdc10840a0a68c7c7c9a99c3967"
          }
        },
        {
          "client_id": "391251810216-a08ej62knn8nlddfvn1f67oghfu2acj9.apps.googleusercontent.com",
          "client_type": 3
        }
      ],
      "api_key": [
        {
          "current_key": "AIzaSyADE0xGOuDbYkloHjss8vVSTDERQ6b2hXs"
        }
      ],
      "services": {
        "appinvite_service": {
          "other_platform_oauth_client": [
            {
              "client_id": "391251810216-a08ej62knn8nlddfvn1f67oghfu2acj9.apps.googleusercontent.com",
              "client_type": 3
            }
          ]
        }
      }
    },
    {
      "client_info": {
        "mobilesdk_app_id": "1:391251810216:android:01c3bdb79431a324",
        "android_client_info": {
          "package_name": "com.example.playerapp"
        }
      },
      "oauth_client": [
        {
          "client_id": "391251810216-a08ej62knn8nlddfvn1f67oghfu2acj9.apps.googleusercontent.com",
          "client_type": 3
        }
      ],
      "api_key": [
        {
          "current_key": "AIzaSyADE0xGOuDbYkloHjss8vVSTDERQ6b2hXs"
        }
      ],
      "services": {
        "appinvite_service": {
          "other_platform_oauth_client": [
            {
              "client_id": "391251810216-a08ej62knn8nlddfvn1f67oghfu2acj9.apps.googleusercontent.com",
              "client_type": 3
            }
          ]
        }
      }
    },
    {
      "client_info": {
        "mobilesdk_app_id": "1:391251810216:android:10af39310368c700",
        "android_client_info": {
          "package_name": "skripsi.rifqi.notifme"
        }
      },
      "oauth_client": [
        {
          "client_id": "391251810216-nts4bqfhu78vrh57tqpakgqncru5914b.apps.googleusercontent.com",
          "client_type": 1,
          "android_info": {
            "package_name": "skripsi.rifqi.notifme",
            "certificate_hash": "1d19b6261421b5bd7404cfe09746c538980628b7"
          }
        },
        {
          "client_id": "391251810216-a08ej62knn8nlddfvn1f67oghfu2acj9.apps.googleusercontent.com",
          "client_type": 3
        }
      ],
      "api_key": [
        {
          "current_key": "AIzaSyADE0xGOuDbYkloHjss8vVSTDERQ6b2hXs"
        }
      ],
      "services": {
        "appinvite_service": {
          "other_platform_oauth_client": [
            {
              "client_id": "391251810216-a08ej62knn8nlddfvn1f67oghfu2acj9.apps.googleusercontent.com",
              "client_type": 3
            }
          ]
        }
      }
    },
    {
      "client_info": {
        "mobilesdk_app_id": "1:391251810216:android:7a8ccefbd954fda8",
        "android_client_info": {
          "package_name": "skripsi.rifqi.notifyme"
        }
      },
      "oauth_client": [
        {
          "client_id": "391251810216-2ud331ogn4dgug7r6enishra9nebr0ei.apps.googleusercontent.com",
          "client_type": 1,
          "android_info": {
            "package_name": "skripsi.rifqi.notifyme",
            "certificate_hash": "73384abaf7a04cdc10840a0a68c7c7c9a99c3967"
          }
        },
        {
          "client_id": "391251810216-a08ej62knn8nlddfvn1f67oghfu2acj9.apps.googleusercontent.com",
          "client_type": 3
        }
      ],
      "api_key": [
        {
          "current_key": "AIzaSyADE0xGOuDbYkloHjss8vVSTDERQ6b2hXs"
        }
      ],
      "services": {
        "appinvite_service": {
          "other_platform_oauth_client": [
            {
              "client_id": "391251810216-a08ej62knn8nlddfvn1f67oghfu2acj9.apps.googleusercontent.com",
              "client_type": 3
            }
          ]
        }
      }
    }
  ],
  "configuration_version": "1"
}